module github.com/jech/galene

go 1.17

require (
	github.com/at-wat/ebml-go v0.17.0
	github.com/golang-jwt/jwt/v4 v4.5.0
	github.com/gorilla/websocket v1.5.0
	github.com/jech/cert v0.0.0-20210819231831-aca735647728
	github.com/jech/samplebuilder v0.0.0-20221109182433-6cbba09fc1c9
	github.com/pion/ice/v2 v2.3.11
	github.com/pion/rtcp v1.2.12
	github.com/pion/rtp v1.8.3
	github.com/pion/sdp/v3 v3.0.6
	github.com/pion/turn/v2 v2.1.4
	github.com/pion/webrtc/v3 v3.2.23
	golang.org/x/crypto v0.15.0
	golang.org/x/sys v0.14.0
)

require (
	github.com/davecgh/go-spew v1.1.1 // indirect
	github.com/google/uuid v1.4.0 // indirect
	github.com/pion/datachannel v1.5.5 // indirect
	github.com/pion/dtls/v2 v2.2.8 // indirect
	github.com/pion/interceptor v0.1.25 // indirect
	github.com/pion/logging v0.2.2 // indirect
	github.com/pion/mdns v0.0.9 // indirect
	github.com/pion/randutil v0.1.0 // indirect
	github.com/pion/sctp v1.8.9 // indirect
	github.com/pion/srtp/v2 v2.0.18 // indirect
	github.com/pion/stun v0.6.1 // indirect
	github.com/pion/transport/v2 v2.2.4 // indirect
	github.com/pmezard/go-difflib v1.0.0 // indirect
	github.com/stretchr/testify v1.8.4 // indirect
	golang.org/x/net v0.18.0 // indirect
	gopkg.in/yaml.v3 v3.0.1 // indirect
)
